{
  "generatedAt": "2026-07-24T20:26:02.458Z",
  "scope": "full",
  "diagnostics": [
    {
      "id": "municipal-councilor",
      "name": "直轄市議員",
      "roleId": "municipal-councilor",
      "count": 354,
      "checkedAt": "2026-07-24T20:26:02.458Z",
      "selectedUrl": "https://www.moi.gov.tw/LocalOfficial.aspx?PageSize=200&TYP=KND0001&n=573&page=1&sms=11395",
      "selectedPageSize": 200,
      "pagesPlanned": 2,
      "pagesFetched": 2,
      "totalRecords": 356,
      "probes": [
        {
          "url": "https://www.moi.gov.tw/LocalOfficial.aspx?PageSize=200&TYP=KND0001&n=573&page=1&sms=11395",
          "count": 200,
          "totalPages": 2,
          "diagnostics": {
            "lineCount": 1432,
            "roleLineCount": 205,
            "detailMarkerCount": 200,
            "totalRecords": 356,
            "requestedPageSize": 200,
            "observedPageSize": 200,
            "effectivePageSize": 200,
            "hasDataQuery": true,
            "sample": [
              "議員",
              "中國國民黨",
              "詳細資訊",
              "中國國民黨",
              "詳細資訊",
              "民主進步黨",
              "詳細資訊",
              "民主進步黨",
              "詳細資訊",
              "中國國民黨",
              "詳細資訊",
              "中國國民黨",
              "詳細資訊",
              "中國國民黨",
              "詳細資訊",
              "中國國民黨",
              "詳細資訊",
              "民主進步黨",
              "詳細資訊",
              "詳細資訊",
              "中國國民黨",
              "詳細資訊",
              "中國國民黨",
              "詳細資訊"
            ]
          }
        }
      ],
      "emptyPages": [],
      "firstPage": {
        "lineCount": 1432,
        "roleLineCount": 205,
        "detailMarkerCount": 200,
        "totalRecords": 356,
        "requestedPageSize": 200,
        "observedPageSize": 200,
        "effectivePageSize": 200,
        "hasDataQuery": true,
        "sample": [
          "議員",
          "中國國民黨",
          "詳細資訊",
          "中國國民黨",
          "詳細資訊",
          "民主進步黨",
          "詳細資訊",
          "民主進步黨",
          "詳細資訊",
          "中國國民黨",
          "詳細資訊",
          "中國國民黨",
          "詳細資訊",
          "中國國民黨",
          "詳細資訊",
          "中國國民黨",
          "詳細資訊",
          "民主進步黨",
          "詳細資訊",
          "詳細資訊",
          "中國國民黨",
          "詳細資訊",
          "中國國民黨",
          "詳細資訊"
        ]
      }
    },
    {
      "id": "county-councilor",
      "name": "縣市議員",
      "roleId": "county-councilor",
      "count": 517,
      "checkedAt": "2026-07-24T20:26:02.458Z",
      "selectedUrl": "https://www.moi.gov.tw/LocalOfficial.aspx?PageSize=200&TYP=KND0002&n=574&page=1&sms=11395",
      "selectedPageSize": 200,
      "pagesPlanned": 3,
      "pagesFetched": 3,
      "totalRecords": 519,
      "probes": [
        {
          "url": "https://www.moi.gov.tw/LocalOfficial.aspx?PageSize=200&TYP=KND0002&n=574&page=1&sms=11395",
          "count": 199,
          "totalPages": 3,
          "diagnostics": {
            "lineCount": 1444,
            "roleLineCount": 205,
            "detailMarkerCount": 200,
            "totalRecords": 519,
            "requestedPageSize": 200,
            "observedPageSize": 199,
            "effectivePageSize": 200,
            "hasDataQuery": true,
            "sample": [
              "議員",
              "民主進步黨",
              "詳細資訊",
              "中國國民黨",
              "詳細資訊",
              "詳細資訊",
              "中國國民黨",
              "詳細資訊",
              "中國國民黨",
              "詳細資訊",
              "詳細資訊",
              "中國國民黨",
              "詳細資訊",
              "中國國民黨",
              "詳細資訊",
              "詳細資訊",
              "民主進步黨",
              "詳細資訊",
              "中國國民黨",
              "詳細資訊",
              "詳細資訊",
              "中國國民黨",
              "詳細資訊",
              "中國國民黨"
            ]
          }
        }
      ],
      "emptyPages": [],
      "firstPage": {
        "lineCount": 1444,
        "roleLineCount": 205,
        "detailMarkerCount": 200,
        "totalRecords": 519,
        "requestedPageSize": 200,
        "observedPageSize": 199,
        "effectivePageSize": 200,
        "hasDataQuery": true,
        "sample": [
          "議員",
          "民主進步黨",
          "詳細資訊",
          "中國國民黨",
          "詳細資訊",
          "詳細資訊",
          "中國國民黨",
          "詳細資訊",
          "中國國民黨",
          "詳細資訊",
          "詳細資訊",
          "中國國民黨",
          "詳細資訊",
          "中國國民黨",
          "詳細資訊",
          "詳細資訊",
          "民主進步黨",
          "詳細資訊",
          "中國國民黨",
          "詳細資訊",
          "詳細資訊",
          "中國國民黨",
          "詳細資訊",
          "中國國民黨"
        ]
      }
    },
    {
      "id": "municipal-mayor",
      "name": "直轄市長",
      "roleId": "municipal-mayor",
      "count": 6,
      "checkedAt": "2026-07-24T20:26:02.458Z",
      "selectedUrl": "https://www.moi.gov.tw/LocalOfficial.aspx?PageSize=200&TYP=KND0004&n=578&page=1&sms=11395",
      "selectedPageSize": 200,
      "pagesPlanned": 1,
      "pagesFetched": 1,
      "totalRecords": 6,
      "probes": [
        {
          "url": "https://www.moi.gov.tw/LocalOfficial.aspx?PageSize=200&TYP=KND0004&n=578&page=1&sms=11395",
          "count": 6,
          "totalPages": 1,
          "diagnostics": {
            "lineCount": 64,
            "roleLineCount": 6,
            "detailMarkerCount": 6,
            "totalRecords": 6,
            "requestedPageSize": 200,
            "observedPageSize": 6,
            "effectivePageSize": 200,
            "hasDataQuery": true,
            "sample": [
              "市長",
              "中國國民黨",
              "詳細資訊",
              "市長",
              "中國國民黨",
              "詳細資訊",
              "市長",
              "民主進步黨",
              "詳細資訊",
              "市長",
              "民主進步黨",
              "詳細資訊",
              "市長",
              "中國國民黨",
              "詳細資訊",
              "市長",
              "中國國民黨",
              "詳細資訊"
            ]
          }
        }
      ],
      "emptyPages": [],
      "firstPage": {
        "lineCount": 64,
        "roleLineCount": 6,
        "detailMarkerCount": 6,
        "totalRecords": 6,
        "requestedPageSize": 200,
        "observedPageSize": 6,
        "effectivePageSize": 200,
        "hasDataQuery": true,
        "sample": [
          "市長",
          "中國國民黨",
          "詳細資訊",
          "市長",
          "中國國民黨",
          "詳細資訊",
          "市長",
          "民主進步黨",
          "詳細資訊",
          "市長",
          "民主進步黨",
          "詳細資訊",
          "市長",
          "中國國民黨",
          "詳細資訊",
          "市長",
          "中國國民黨",
          "詳細資訊"
        ]
      }
    },
    {
      "id": "county-mayor",
      "name": "縣市長",
      "roleId": "county-mayor",
      "count": 13,
      "checkedAt": "2026-07-24T20:26:02.458Z",
      "selectedUrl": "https://www.moi.gov.tw/LocalOfficial.aspx?PageSize=200&TYP=KND0005&n=579&page=1&sms=11395",
      "selectedPageSize": 200,
      "pagesPlanned": 1,
      "pagesFetched": 1,
      "totalRecords": 13,
      "probes": [
        {
          "url": "https://www.moi.gov.tw/LocalOfficial.aspx?PageSize=200&TYP=KND0005&n=579&page=1&sms=11395",
          "count": 13,
          "totalPages": 1,
          "diagnostics": {
            "lineCount": 145,
            "roleLineCount": 13,
            "detailMarkerCount": 16,
            "totalRecords": 13,
            "requestedPageSize": 200,
            "observedPageSize": 13,
            "effectivePageSize": 200,
            "hasDataQuery": true,
            "sample": [
              "市長",
              "中國國民黨",
              "詳細資訊",
              "縣長",
              "中國國民黨",
              "詳細資訊",
              "市長",
              "中國國民黨",
              "詳細資訊",
              "縣長",
              "中國國民黨",
              "詳細資訊",
              "縣長",
              "詳細資訊",
              "縣長",
              "中國國民黨",
              "詳細資訊",
              "市長",
              "詳細資訊",
              "縣長",
              "中國國民黨",
              "詳細資訊",
              "縣長",
              "民主進步黨"
            ]
          }
        }
      ],
      "emptyPages": [],
      "firstPage": {
        "lineCount": 145,
        "roleLineCount": 13,
        "detailMarkerCount": 16,
        "totalRecords": 13,
        "requestedPageSize": 200,
        "observedPageSize": 13,
        "effectivePageSize": 200,
        "hasDataQuery": true,
        "sample": [
          "市長",
          "中國國民黨",
          "詳細資訊",
          "縣長",
          "中國國民黨",
          "詳細資訊",
          "市長",
          "中國國民黨",
          "詳細資訊",
          "縣長",
          "中國國民黨",
          "詳細資訊",
          "縣長",
          "詳細資訊",
          "縣長",
          "中國國民黨",
          "詳細資訊",
          "市長",
          "詳細資訊",
          "縣長",
          "中國國民黨",
          "詳細資訊",
          "縣長",
          "民主進步黨"
        ]
      }
    },
    {
      "id": "township-mayor",
      "name": "鄉鎮市長",
      "roleId": "township-mayor",
      "count": 193,
      "checkedAt": "2026-07-24T20:26:02.458Z",
      "selectedUrl": "https://www.moi.gov.tw/LocalOfficial.aspx?PageSize=200&TYP=KND0006&n=580&page=1&sms=11395",
      "selectedPageSize": 200,
      "pagesPlanned": 1,
      "pagesFetched": 1,
      "totalRecords": 193,
      "probes": [
        {
          "url": "https://www.moi.gov.tw/LocalOfficial.aspx?PageSize=200&TYP=KND0006&n=580&page=1&sms=11395",
          "count": 193,
          "totalPages": 1,
          "diagnostics": {
            "lineCount": 1398,
            "roleLineCount": 194,
            "detailMarkerCount": 197,
            "totalRecords": 193,
            "requestedPageSize": 200,
            "observedPageSize": 193,
            "effectivePageSize": 200,
            "hasDataQuery": true,
            "sample": [
              "鎮長",
              "詳細資訊",
              "鄉長",
              "中國國民黨",
              "詳細資訊",
              "鎮長",
              "詳細資訊",
              "鄉長",
              "中國國民黨",
              "詳細資訊",
              "鄉長",
              "中國國民黨",
              "詳細資訊",
              "鄉長",
              "中國國民黨",
              "詳細資訊",
              "鄉長",
              "中國國民黨",
              "詳細資訊",
              "鄉長",
              "中國國民黨",
              "詳細資訊",
              "鄉長",
              "中國國民黨"
            ]
          }
        }
      ],
      "emptyPages": [],
      "firstPage": {
        "lineCount": 1398,
        "roleLineCount": 194,
        "detailMarkerCount": 197,
        "totalRecords": 193,
        "requestedPageSize": 200,
        "observedPageSize": 193,
        "effectivePageSize": 200,
        "hasDataQuery": true,
        "sample": [
          "鎮長",
          "詳細資訊",
          "鄉長",
          "中國國民黨",
          "詳細資訊",
          "鎮長",
          "詳細資訊",
          "鄉長",
          "中國國民黨",
          "詳細資訊",
          "鄉長",
          "中國國民黨",
          "詳細資訊",
          "鄉長",
          "中國國民黨",
          "詳細資訊",
          "鄉長",
          "中國國民黨",
          "詳細資訊",
          "鄉長",
          "中國國民黨",
          "詳細資訊",
          "鄉長",
          "中國國民黨"
        ]
      }
    },
    {
      "id": "indigenous-district-mayor",
      "name": "直轄市原住民區長",
      "roleId": "indigenous-district-mayor",
      "count": 6,
      "checkedAt": "2026-07-24T20:26:02.458Z",
      "selectedUrl": "https://www.moi.gov.tw/LocalOfficial.aspx?PageSize=200&TYP=KND0009&n=581&page=1&sms=11395",
      "selectedPageSize": 200,
      "pagesPlanned": 1,
      "pagesFetched": 1,
      "totalRecords": 6,
      "probes": [
        {
          "url": "https://www.moi.gov.tw/LocalOfficial.aspx?PageSize=200&TYP=KND0009&n=581&page=1&sms=11395",
          "count": 6,
          "totalPages": 1,
          "diagnostics": {
            "lineCount": 64,
            "roleLineCount": 6,
            "detailMarkerCount": 6,
            "totalRecords": 6,
            "requestedPageSize": 200,
            "observedPageSize": 6,
            "effectivePageSize": 200,
            "hasDataQuery": true,
            "sample": [
              "中國國民黨",
              "詳細資訊",
              "詳細資訊",
              "詳細資訊",
              "詳細資訊",
              "詳細資訊",
              "詳細資訊"
            ]
          }
        }
      ],
      "emptyPages": [],
      "firstPage": {
        "lineCount": 64,
        "roleLineCount": 6,
        "detailMarkerCount": 6,
        "totalRecords": 6,
        "requestedPageSize": 200,
        "observedPageSize": 6,
        "effectivePageSize": 200,
        "hasDataQuery": true,
        "sample": [
          "中國國民黨",
          "詳細資訊",
          "詳細資訊",
          "詳細資訊",
          "詳細資訊",
          "詳細資訊",
          "詳細資訊"
        ]
      }
    }
  ]
}
