{
  "status": "ok",
  "schedule": "daily",
  "timezone": "Asia/Taipei",
  "plannedTime": "03:00",
  "lastAttemptAt": "2026-07-21T23:42:33.440Z",
  "lastSuccessAt": "2026-07-21T23:42:33.440Z",
  "lastOfficialChangeAt": "2026-07-21T23:42:33.440Z",
  "officeholderCount": 11008,
  "localOfficeholderCount": 10893,
  "legislatorCount": 113,
  "replacedRoles": [
    "village-chief"
  ],
  "preservedRoles": [
    "county-councilor",
    "county-mayor",
    "indigenous-district-mayor",
    "indigenous-district-representative",
    "legislator",
    "municipal-councilor",
    "municipal-mayor",
    "president",
    "township-mayor",
    "township-representative",
    "vice-president"
  ],
  "message": "現任公職資料已更新，共 11008 人（立委 113、地方 10893）。",
  "coverage": {
    "presidency": "active",
    "legislature": "active",
    "local": "active-or-partial"
  },
  "errors": [],
  "scope": "full",
  "roleFilter": [
    "village-chief"
  ],
  "datasetMode": "skip",
  "sources": [
    {
      "id": "village-chief",
      "name": "村里長",
      "status": "ok-html",
      "count": 7720,
      "checkedAt": "2026-07-21T23:42:33.440Z",
      "url": "https://www.moi.gov.tw/LocalOfficial.aspx?PageSize=200&TYP=KND0007&n=577",
      "diagnostics": {
        "selectedUrl": "https://www.moi.gov.tw/LocalOfficial.aspx?PageSize=200&TYP=KND0007&n=577&page=1&sms=11395",
        "selectedPageSize": 200,
        "pagesPlanned": 39,
        "pagesFetched": 39,
        "totalRecords": 7729,
        "probes": [
          {
            "url": "https://www.moi.gov.tw/LocalOfficial.aspx?PageSize=200&TYP=KND0007&n=577&page=1&sms=11395",
            "count": 200,
            "totalPages": 39,
            "diagnostics": {
              "lineCount": 1449,
              "roleLineCount": 200,
              "detailMarkerCount": 200,
              "totalRecords": 7729,
              "requestedPageSize": 200,
              "observedPageSize": 200,
              "effectivePageSize": 200,
              "hasDataQuery": true,
              "sample": [
                "里長",
                "民主進步黨",
                "詳細資訊",
                "里長",
                "民主進步黨",
                "詳細資訊",
                "里長",
                "詳細資訊",
                "里長",
                "詳細資訊",
                "里長",
                "中國國民黨",
                "詳細資訊",
                "里長",
                "詳細資訊",
                "里長",
                "詳細資訊",
                "里長",
                "詳細資訊",
                "里長",
                "詳細資訊",
                "里長",
                "中國國民黨",
                "詳細資訊"
              ]
            }
          }
        ],
        "emptyPages": [],
        "firstPage": {
          "lineCount": 1449,
          "roleLineCount": 200,
          "detailMarkerCount": 200,
          "totalRecords": 7729,
          "requestedPageSize": 200,
          "observedPageSize": 200,
          "effectivePageSize": 200,
          "hasDataQuery": true,
          "sample": [
            "里長",
            "民主進步黨",
            "詳細資訊",
            "里長",
            "民主進步黨",
            "詳細資訊",
            "里長",
            "詳細資訊",
            "里長",
            "詳細資訊",
            "里長",
            "中國國民黨",
            "詳細資訊",
            "里長",
            "詳細資訊",
            "里長",
            "詳細資訊",
            "里長",
            "詳細資訊",
            "里長",
            "詳細資訊",
            "里長",
            "中國國民黨",
            "詳細資訊"
          ]
        }
      }
    }
  ]
}
